<svg width="41" height="32" viewBox="0 0 41 32" fill="none" xmlns="http://www.w3.org/2000/svg">
<path fill-rule="evenodd" clip-rule="evenodd" d="M16.0958 18.8992L34.3376 0.657402L40.7758 7.09567L16.0958 31.7757L0.000152387 15.68L6.43842 9.24176L16.0958 18.8992Z" fill="#26AC5F"/>
</svg>
