<svg width="16" height="13" viewBox="0 0 16 13" fill="none" xmlns="http://www.w3.org/2000/svg">
<path d="M6.22222 9.48469C5.1778 9.48469 4.19369 9.28844 3.32936 8.94206C2.45783 9.65442 1.38855 10.0885 0.252583 10.2129C0.24437 10.2138 0.236119 10.2143 0.227861 10.2143C0.124083 10.2143 0.0303333 10.1418 0.00516666 10.0384C-0.0220555 9.92347 0.0631666 9.85272 0.147555 9.7684C0.564694 9.34941 1.07039 9.02003 1.26817 7.61246C0.472639 6.81589 0 5.82162 0 4.74236C0 2.12295 2.78603 0 6.22222 0C9.65841 0 12.4444 2.12292 12.4444 4.74236C12.4444 7.3636 9.65841 9.48469 6.22222 9.48469ZM15.863 12.5947C15.4756 12.2137 15.006 11.9143 14.8224 10.6347C16.7337 8.76107 16.2716 6.08078 13.7759 4.62611C13.7768 4.66482 13.7777 4.7035 13.7777 4.74236C13.7777 8.29684 10.1782 11.0217 5.88186 10.8716C6.94077 11.77 8.49266 12.3367 10.2222 12.3367C11.192 12.3367 12.1058 12.1583 12.9084 11.8434C13.7177 12.491 14.7106 12.8856 15.7654 12.9988C15.8706 13.0102 15.97 12.9415 15.9952 12.8401C16.0205 12.7356 15.9413 12.6713 15.863 12.5947Z" fill="#555F61"/>
</svg>
