<svg width="54" height="54" viewBox="0 0 54 54" fill="none" xmlns="http://www.w3.org/2000/svg">
<path d="M22.7237 36.6072L14.057 27.8907C13.5363 27.367 13.5363 26.5179 14.057 25.9942L15.9426 24.0978C16.4633 23.574 17.3075 23.574 17.8282 24.0978L23.6665 29.9696L36.1715 17.3928C36.6921 16.8691 37.5364 16.8691 38.0571 17.3928L39.9427 19.2892C40.4633 19.8129 40.4633 20.662 39.9427 21.1857L24.6093 36.6073C24.0886 37.1309 23.2444 37.1309 22.7237 36.6072Z" fill="#1C6E31"/>
<circle cx="26.9999" cy="27" r="25.9167" stroke="#1C6E31" stroke-width="1.5"/>
</svg>
