<svg width="16" height="16" viewBox="0 0 16 16" fill="none" xmlns="http://www.w3.org/2000/svg">
<path d="M8.00039 0.399902C3.80839 0.399902 0.400391 3.8079 0.400391 7.9999C0.400391 12.1919 3.80839 15.5999 8.00039 15.5999C12.1924 15.5999 15.6004 12.1919 15.6004 7.9999C15.6004 3.8079 12.1924 0.399902 8.00039 0.399902ZM8.00039 14.2559C4.54439 14.2559 1.74439 11.4559 1.74439 7.9999C1.74439 4.5439 4.54439 1.74391 8.00039 1.74391C11.4564 1.74391 14.2564 4.5439 14.2564 7.9999C14.2564 11.4559 11.4564 14.2559 8.00039 14.2559Z" fill="#FAFAFA"/>
<path d="M10.3053 4.11194L8.00128 6.41593L5.69728 4.11194L4.11328 5.69593L6.41728 7.99994L4.11328 10.3039L5.69728 11.8879L8.00128 9.58394L10.3053 11.8879L11.8893 10.3039L9.58528 7.99994L11.8893 5.69593L10.3053 4.11194Z" fill="#FAFAFA"/>
</svg>
