<svg width="80" height="80" viewBox="0 0 80 80" fill="none" xmlns="http://www.w3.org/2000/svg">
<path d="M40 0C17.9 0 0 17.9 0 40C0 62.1 17.9 80 40 80C62.1 80 80 62.1 80 40C80 17.9 62.1 0 40 0ZM39.5 10.3C46.3 10.15 51.6 15.4 51.7 22.05C51.8 29.05 46.2 34 39.9 34C33.5 34.1 28.1 28.6 27.95 22.35C27.75 16.05 32.9 10.45 39.5 10.3ZM57.55 60.7C52.95 61.65 48.35 62.55 43.75 63.4C42.5 63.65 41.2 63.65 39.95 63.75C37.05 63.75 34.2 63.1 31.35 62.55C28.5 62 25.65 61.4 22.75 60.85C20.45 60.4 18.95 59.05 18.6 57.1C18.4 56.05 18.65 55.05 18.7 54C18.9 51.45 19.15 48.9 19.45 46.35C20 41.9 22.05 38.35 25.6 35.6C26.75 34.7 28.05 34.05 29.4 33.5C29.75 33.35 30 33.4 30.3 33.65C35.85 38.25 43.6 38.35 49.25 33.8C49.75 33.4 50.1 33.35 50.65 33.6C56.1 35.95 59.3 40.1 60.25 45.9C60.65 48.3 60.75 50.75 60.95 53.15C61 53.9 61.05 54.7 61.15 55.45C61.5 58.05 60.1 60.2 57.55 60.7Z" fill="#1C6E31"/>
</svg>
