<svg width="12" height="14" viewBox="0 0 12 14" fill="none" xmlns="http://www.w3.org/2000/svg">
<path d="M0 12.6875C0 13.4121 0.575893 14 1.28571 14H10.7143C11.4241 14 12 13.4121 12 12.6875V5.25H0V12.6875ZM1.71429 7.4375C1.71429 7.19688 1.90714 7 2.14286 7H4.71429C4.95 7 5.14286 7.19688 5.14286 7.4375V10.0625C5.14286 10.3031 4.95 10.5 4.71429 10.5H2.14286C1.90714 10.5 1.71429 10.3031 1.71429 10.0625V7.4375ZM10.7143 1.75H9.42857V0.4375C9.42857 0.196875 9.23571 0 9 0H8.14286C7.90714 0 7.71429 0.196875 7.71429 0.4375V1.75H4.28571V0.4375C4.28571 0.196875 4.09286 0 3.85714 0H3C2.76429 0 2.57143 0.196875 2.57143 0.4375V1.75H1.28571C0.575893 1.75 0 2.33789 0 3.0625V4.375H12V3.0625C12 2.33789 11.4241 1.75 10.7143 1.75Z" fill="#555F61"/>
</svg>
