<svg width="21" height="16" viewBox="0 0 21 16" fill="none" xmlns="http://www.w3.org/2000/svg">
<path d="M16.3225 0.61C16.3225 0.55 16.3225 0.55 16.3225 0.61C16.27 0.49 16.27 0.43 16.2175 0.43C16.165 0.37 16.165 0.37 16.1125 0.31H16.06C16.0075 0.31 15.955 0.25 15.9025 0.25H1.15C1.15 0.25 1.15 0.25 1.0975 0.25C1.045 0.25 0.9925 0.25 0.94 0.31H0.8875C0.835 0.31 0.7825 0.37 0.7825 0.43C0.73 0.43 0.6775 0.49 0.6775 0.55V0.61C0.625 0.67 0.625 0.73 0.625 0.79V10.15C0.625 10.21 0.625 10.33 0.6775 10.39C0.6775 10.45 0.73 10.51 0.7825 10.57C0.835 10.63 0.8875 10.69 0.94 10.69C0.9925 10.75 1.0975 10.75 1.15 10.75H15.85C15.9025 10.75 16.0075 10.75 16.06 10.69C16.165 10.63 16.27 10.51 16.3225 10.39C16.3225 10.33 16.375 10.27 16.375 10.15V0.79C16.375 0.73 16.375 0.67 16.3225 0.61ZM8.5 6.01L2.7775 1.39H14.17L8.5 6.01ZM1.675 1.93L5.14 4.75L1.675 8.71V1.93ZM5.98 5.47L8.185 7.27C8.3425 7.39 8.605 7.39 8.815 7.27L11.02 5.47L14.59 9.55H2.41L5.98 5.47ZM11.86 4.75L15.325 1.93V8.65L11.86 4.75Z"/>
</svg>
