<svg width="12" height="24" viewBox="0 0 12 24" fill="none" xmlns="http://www.w3.org/2000/svg">
  <path d="M5.1052 6.86343C5.10495 6.01095 5.11563 5.1694 5.09353 4.31692C5.09348 4.16391 4.99508 4.0218 4.95132 3.86878C4.79833 3.93431 4.6344 3.96705 4.52514 4.07631C4.02253 4.55705 3.55273 5.07059 3.03919 5.5404C2.44917 6.08669 1.71686 5.90068 1.46527 5.16835C1.32308 4.78578 1.50879 4.49075 1.76009 4.23945C2.43751 3.56203 3.12585 2.87369 3.8142 2.20721C4.3168 1.70461 4.81939 1.20201 5.322 0.721268C5.76997 0.295158 6.19621 0.284352 6.63351 0.721648C7.82513 1.86956 9.00582 3.05026 10.1974 4.19817C10.5145 4.51521 10.6457 4.88685 10.4819 5.31304C10.3509 5.66274 9.93564 5.92492 9.5531 5.8483C9.31264 5.80451 9.08309 5.66237 8.90817 5.48745C8.41622 5.03921 7.95705 4.53633 7.48696 4.06624C7.37763 3.95692 7.21368 3.92408 7.06066 3.85846C7.01698 4.01146 6.91866 4.15351 6.91871 4.30652C6.91917 5.90218 6.91963 7.49785 6.92009 9.09352C6.92014 9.26839 6.93112 9.43233 6.89838 9.59626C6.84387 10.0662 6.39588 10.4267 5.91498 10.4047C5.47781 10.3827 5.10611 10.011 5.10597 9.53016C5.09478 8.64489 5.11638 7.7487 5.1052 6.86343Z" fill="#0D4B1C"/>
  <path d="M5.10141 16.2347C5.10117 15.4041 5.09001 14.5844 5.1007 13.7647C5.10052 13.1527 5.43921 12.7484 5.95288 12.7376C6.51027 12.7268 6.90383 13.1204 6.91495 13.7652C6.92635 15.3937 6.9159 17.044 6.9273 18.6724C6.92736 18.8692 7.00392 19.0769 7.05863 19.2845C7.25532 19.1753 7.46296 19.0988 7.62685 18.9568C8.08576 18.5198 8.52279 18.0609 8.95983 17.6238C9.39688 17.1868 9.92148 17.1869 10.326 17.5914C10.6867 17.9522 10.665 18.4768 10.2499 18.892C9.06984 20.072 7.88982 21.252 6.68795 22.432C6.23998 22.88 5.80281 22.8799 5.33272 22.4316C4.1083 21.2291 2.89481 20.0374 1.68131 18.8239C1.30961 18.4522 1.3204 17.9604 1.68095 17.578C2.01966 17.2174 2.5661 17.1739 2.92687 17.5128C3.46254 18.0048 3.94358 18.5295 4.46833 19.0324C4.58858 19.1527 4.78532 19.1964 4.94928 19.273C5.00388 19.1091 5.08034 18.9451 5.09122 18.7812C5.11283 17.9287 5.11259 17.0763 5.10141 16.2347Z" fill="#0D4B1C"/>
</svg>