<svg width="14" height="28" viewBox="0 0 14 28" fill="none" xmlns="http://www.w3.org/2000/svg">
<path fill-rule="evenodd" clip-rule="evenodd" d="M9.43795 9.65135C9.47742 8.18848 9.21271 6.15139 9.65889 5.45603C10.4749 4.18296 13.7329 4.51402 13.7329 4.51402C13.7329 4.51402 13.7329 1.62239 13.7329 0.00820463C8.59235 0.00820463 6.91017 -0.210898 5.14605 1.6154C3.57669 3.24008 3.52822 6.43085 3.39908 9.65135H0.879883V14.0561H3.4274C3.42654 18.6499 3.42868 23.6844 3.4274 28C5.34168 28 9.41392 28 9.41392 28V14.001C9.41392 14.001 11.6332 14.001 12.8641 14.001C13.1327 12.5207 13.3944 11.3613 13.7599 9.65091H9.43795V9.65135Z" fill="#1C6E31"/>
</svg>
