<svg width="135" height="81" viewBox="0 0 135 81" fill="none" xmlns="http://www.w3.org/2000/svg">
<path d="M91.6945 0H73.575C71.8875 0 70.2633 0.632583 69.0188 1.77123L48.2836 20.7487C48.2625 20.7698 48.2414 20.812 48.2203 20.8331C44.7188 24.1225 44.782 29.3729 47.7773 32.6413C50.4562 35.5723 56.0883 36.3524 59.6109 33.2106C59.632 33.1895 59.6742 33.1895 59.6953 33.1684L76.5492 17.7334C77.9203 16.4893 80.0719 16.5737 81.3164 17.9443C82.582 19.3149 82.4766 21.4446 81.1055 22.7097L75.6 27.7493L106.312 52.6731C106.924 53.1791 107.473 53.7274 107.979 54.2967V13.4951L96.4617 1.98209C95.2172 0.716928 93.4875 0 91.6945 0ZM114.75 13.5373V60.7491C114.75 64.4813 117.766 67.4966 121.5 67.4966H135V13.5373H114.75ZM124.875 60.7491C123.019 60.7491 121.5 59.2309 121.5 57.3753C121.5 55.5197 123.019 54.0015 124.875 54.0015C126.731 54.0015 128.25 55.5197 128.25 57.3753C128.25 59.2309 126.731 60.7491 124.875 60.7491ZM0 67.4755H13.5C17.2336 67.4755 20.25 64.4602 20.25 60.728V13.5373H0V67.4755ZM10.125 54.0015C11.9812 54.0015 13.5 55.5197 13.5 57.3753C13.5 59.2309 11.9812 60.7491 10.125 60.7491C8.26875 60.7491 6.75 59.2309 6.75 57.3753C6.75 55.4986 8.26875 54.0015 10.125 54.0015ZM102.073 57.9235L70.5797 32.3672L64.2516 38.1658C57.9867 43.8802 48.3891 43.3319 42.7992 37.2381C37.125 31.0387 37.568 21.4446 43.7273 15.7935L60.982 0H43.3055C41.5125 0 39.8039 0.716928 38.5383 1.98209L27 13.4951V60.7069H30.8602L49.95 77.9764C55.7297 82.6786 64.2305 81.793 68.9344 76.0154L68.9766 75.9732L72.7523 79.2416C76.1062 81.9828 81.0633 81.4556 83.7844 78.1029L90.4078 69.9637L91.5469 70.8915C94.4367 73.232 98.6977 72.8103 101.039 69.9004L103.043 67.4333C105.405 64.5235 104.963 60.2852 102.073 57.9235Z" fill="white"/>
</svg>
