<svg width="25" height="62" viewBox="0 0 25 62" fill="none" xmlns="http://www.w3.org/2000/svg">
<path d="M14.6821 28.65L5.68213 23.46" stroke="#BAD6C6" stroke-width="2" stroke-linecap="round" stroke-linejoin="round"/>
<path d="M19.1821 35.25V27.25C19.1818 26.8993 19.0892 26.5548 18.9137 26.2512C18.7381 25.9475 18.4859 25.6954 18.1821 25.52L11.1821 21.52C10.8781 21.3445 10.5332 21.2521 10.1821 21.2521C9.83106 21.2521 9.48617 21.3445 9.18213 21.52L2.18213 25.52C1.87839 25.6954 1.62611 25.9475 1.45059 26.2512C1.27507 26.5548 1.18249 26.8993 1.18213 27.25V35.25C1.18249 35.6008 1.27507 35.9452 1.45059 36.2489C1.62611 36.5525 1.87839 36.8047 2.18213 36.98L9.18213 40.98C9.48617 41.1556 9.83106 41.248 10.1821 41.248C10.5332 41.248 10.8781 41.1556 11.1821 40.98L18.1821 36.98C18.4859 36.8047 18.7381 36.5525 18.9137 36.2489C19.0892 35.9452 19.1818 35.6008 19.1821 35.25Z" stroke="#BAD6C6" stroke-width="2" stroke-linecap="round" stroke-linejoin="round"/>
<path d="M1.45215 26.21L10.1821 31.26L18.9121 26.21" stroke="#BAD6C6" stroke-width="2" stroke-linecap="round" stroke-linejoin="round"/>
<path d="M10.1821 41.33V31.25" stroke="#BAD6C6" stroke-width="2" stroke-linecap="round" stroke-linejoin="round"/>
<path d="M19.1323 51.5992L23.4577 55.9246L19.1323 60.25" stroke="#BAD6C6" stroke-width="2" stroke-linecap="round" stroke-linejoin="round"/>
<path d="M9.61621 46.4088V52.4643C9.61621 53.382 9.98078 54.2622 10.6297 54.9111C11.2786 55.5601 12.1588 55.9246 13.0765 55.9246H23.4575" stroke="#BAD6C6" stroke-width="2" stroke-linecap="round" stroke-linejoin="round"/>
<path d="M6.29102 11.2659L10.6164 15.5913L14.9418 11.2659" stroke="#BAD6C6" stroke-width="2" stroke-linecap="round" stroke-linejoin="round"/>
<path d="M1.10059 1.75H7.15614C8.07387 1.75 8.95402 2.11457 9.60296 2.7635C10.2519 3.41244 10.6165 4.29258 10.6165 5.21032V15.5913" stroke="#BAD6C6" stroke-width="2" stroke-linecap="round" stroke-linejoin="round"/>
</svg>
