<svg width="224" height="37" viewBox="0 0 224 37" fill="none" xmlns="http://www.w3.org/2000/svg">
<path d="M33.2111 12.8171C32.9379 12.4923 32.528 12.3066 32.118 12.3066H1.46608C1.05617 12.3066 0.646265 12.4923 0.372993 12.8171C0.0997214 13.1419 -0.0369144 13.5596 0.00863085 14.0236L2.55917 32.2607C2.65026 33.0032 3.28789 33.5601 4.01661 33.5601H29.5675C30.2962 33.5601 30.9339 33.0032 31.025 32.2607L32.528 20.7987C32.5735 20.3811 32.4369 19.917 32.1636 19.5922C31.8903 19.2674 31.4804 19.0818 31.0705 19.0818H10.894C10.393 19.0818 9.9375 19.3138 9.61868 19.685C9.29987 20.0563 9.16323 20.5667 9.20877 21.0308L9.98304 26.2281C10.0741 26.9706 10.7118 27.5274 11.4405 27.5274H21.8704C22.5991 27.5274 23.2367 27.017 23.3734 26.3673C23.4644 25.9497 23.3734 25.4856 23.0545 25.1144C22.7813 24.7896 22.3714 24.5575 21.9159 24.5575H14.5831C14.0366 24.5575 13.6267 24.1399 13.5811 23.6294V23.4438C13.5356 23.119 13.6722 22.8405 13.8544 22.6085C14.0366 22.3765 14.3098 22.2837 14.5831 22.2837H26.0605C26.3338 22.2837 26.6526 22.4229 26.8348 22.6549C27.017 22.887 27.1081 23.1654 27.0625 23.4902L26.2883 29.1052C26.1972 29.6621 25.7417 30.0333 25.2407 30.0333H8.11569C7.61469 30.0333 7.15924 29.6621 7.11369 29.1516L5.51961 17.7824C5.47406 17.504 5.56515 17.1792 5.74733 16.9471C5.92952 16.7151 6.20279 16.5759 6.5216 16.5759H31.8903C32.619 16.5759 33.2567 16.019 33.3478 15.2766L33.5299 14.0236C33.621 13.5596 33.4844 13.1419 33.2111 12.8171Z" fill="#FFFFFF"/>
<path d="M20.2169 2.94676C18.8504 4.30679 18.1908 7.30825 17.908 9.09036C17.8138 9.70003 18.3792 10.2159 18.9918 10.0283C19.84 9.74693 21.0651 9.32485 22.5729 8.80897C25.7771 7.68343 26.2954 6.37029 26.9551 4.82267C27.332 3.88472 27.709 2.1495 27.9446 0.977059C28.0859 0.367389 27.4734 -0.148485 26.8608 0.0391053C24.0336 0.930161 21.2536 1.96191 20.2169 2.94676Z" fill="#FFFFFF"/>
<path d="M13.3412 2.94676C14.7077 4.30679 15.3674 7.30825 15.6501 9.09036C15.7443 9.70003 15.1789 10.2159 14.5663 10.0283C13.7182 9.74693 12.4931 9.32485 10.9852 8.80897C7.78108 7.68343 7.26276 6.37029 6.60308 4.82267C6.22612 3.88472 5.84917 2.1495 5.61357 0.977059C5.47221 0.367389 6.08476 -0.148485 6.69732 0.0391053C9.52452 0.930161 12.3046 1.96191 13.3412 2.94676Z" fill="#FFFFFF"/>
<path d="M45.3394 15.7887C45.256 15.4387 45.2894 15.1637 45.4394 14.9637C45.5894 14.747 45.856 14.6387 46.2394 14.6387H47.4894C48.0894 14.6387 48.4644 14.947 48.6144 15.5637L51.1894 26.9137C51.2394 27.1637 51.281 27.4053 51.3144 27.6387C51.3477 27.8553 51.381 28.0553 51.4144 28.2387C51.4477 28.4387 51.4644 28.622 51.4644 28.7887H51.5144C51.531 28.622 51.556 28.4387 51.5894 28.2387C51.6394 27.872 51.7394 27.4303 51.8894 26.9137L54.8394 15.5387C55.006 14.9387 55.3977 14.6387 56.0144 14.6387H56.8644C57.481 14.6387 57.856 14.9387 57.9894 15.5387L60.9144 26.9137C60.981 27.1803 61.0394 27.422 61.0894 27.6387C61.1394 27.8553 61.181 28.0553 61.2144 28.2387C61.2477 28.4387 61.2727 28.622 61.2894 28.7887H61.3394C61.356 28.622 61.381 28.4387 61.4144 28.2387C61.4477 28.0553 61.4727 27.8553 61.4894 27.6387C61.5227 27.4053 61.5727 27.1637 61.6394 26.9137L64.3644 15.5637C64.481 14.947 64.8644 14.6387 65.5144 14.6387H66.6894C67.0727 14.6387 67.3394 14.747 67.4894 14.9637C67.656 15.1637 67.6977 15.4387 67.6144 15.7887L63.5394 31.5137C63.3727 32.097 62.981 32.3887 62.3644 32.3887H60.5894C59.9727 32.3887 59.5894 32.0887 59.4394 31.4887L56.9144 21.8887C56.7644 21.3053 56.6477 20.772 56.5644 20.2887C56.5144 20.0387 56.4727 19.797 56.4394 19.5637H56.3644C56.331 19.797 56.2894 20.0387 56.2394 20.2887C56.206 20.522 56.156 20.7803 56.0894 21.0637C56.0394 21.3303 55.981 21.6053 55.9144 21.8887L53.3644 31.4887C53.2144 32.0887 52.831 32.3887 52.2144 32.3887H50.4144C49.7977 32.3887 49.4144 32.0887 49.2644 31.4887L45.3394 15.7887ZM69.8431 15.6887C69.8431 14.9887 70.1931 14.6387 70.8931 14.6387H71.9681C72.6681 14.6387 73.0181 14.9887 73.0181 15.6887V20.8387C73.0181 21.0053 73.0097 21.1553 72.9931 21.2887C72.9931 21.4053 72.9847 21.5137 72.9681 21.6137C72.9514 21.7303 72.9431 21.8303 72.9431 21.9137H72.9931C73.1431 21.6137 73.3514 21.3137 73.6181 21.0137C73.9014 20.697 74.2264 20.4137 74.5931 20.1637C74.9764 19.9137 75.4014 19.7137 75.8681 19.5637C76.3514 19.4137 76.8681 19.3387 77.4181 19.3387C78.8347 19.3387 79.9264 19.722 80.6931 20.4887C81.4764 21.2553 81.8681 22.4887 81.8681 24.1887V31.3387C81.8681 32.0387 81.5181 32.3887 80.8181 32.3887H79.7431C79.0431 32.3887 78.6931 32.0387 78.6931 31.3387V24.8387C78.6931 24.0553 78.5597 23.4303 78.2931 22.9637C78.0264 22.4803 77.4931 22.2387 76.6931 22.2387C76.1431 22.2387 75.6347 22.347 75.1681 22.5637C74.7181 22.7803 74.3347 23.0803 74.0181 23.4637C73.7014 23.8303 73.4514 24.272 73.2681 24.7887C73.1014 25.3053 73.0181 25.8637 73.0181 26.4637V31.3387C73.0181 32.0387 72.6681 32.3887 71.9681 32.3887H70.8931C70.1931 32.3887 69.8431 32.0387 69.8431 31.3387V15.6887ZM84.0089 26.0137C84.0089 25.047 84.1922 24.1553 84.5589 23.3387C84.9256 22.5053 85.4256 21.797 86.0589 21.2137C86.6922 20.6303 87.4339 20.172 88.2839 19.8387C89.1339 19.5053 90.0422 19.3387 91.0089 19.3387C91.9756 19.3387 92.8839 19.5053 93.7339 19.8387C94.5839 20.172 95.3256 20.6303 95.9589 21.2137C96.6089 21.797 97.1172 22.5053 97.4839 23.3387C97.8506 24.1553 98.0339 25.047 98.0339 26.0137C98.0339 26.997 97.8506 27.897 97.4839 28.7137C97.1172 29.5303 96.6089 30.2387 95.9589 30.8387C95.3256 31.422 94.5839 31.8803 93.7339 32.2137C92.8839 32.5303 91.9756 32.6887 91.0089 32.6887C90.0422 32.6887 89.1339 32.5303 88.2839 32.2137C87.4339 31.8803 86.6922 31.422 86.0589 30.8387C85.4256 30.2387 84.9256 29.5303 84.5589 28.7137C84.1922 27.897 84.0089 26.997 84.0089 26.0137ZM87.2339 26.0137C87.2339 26.6137 87.3339 27.1553 87.5339 27.6387C87.7339 28.122 88.0006 28.5387 88.3339 28.8887C88.6839 29.2387 89.0839 29.5137 89.5339 29.7137C90.0006 29.897 90.4922 29.9887 91.0089 29.9887C91.5256 29.9887 92.0089 29.897 92.4589 29.7137C92.9256 29.5137 93.3339 29.2387 93.6839 28.8887C94.0339 28.5387 94.3089 28.122 94.5089 27.6387C94.7089 27.1553 94.8089 26.6137 94.8089 26.0137C94.8089 25.4303 94.7089 24.897 94.5089 24.4137C94.3089 23.9137 94.0339 23.4887 93.6839 23.1387C93.3339 22.7887 92.9256 22.522 92.4589 22.3387C92.0089 22.1387 91.5256 22.0387 91.0089 22.0387C90.4922 22.0387 90.0006 22.1387 89.5339 22.3387C89.0839 22.522 88.6839 22.7887 88.3339 23.1387C88.0006 23.4887 87.7339 23.9137 87.5339 24.4137C87.3339 24.897 87.2339 25.4303 87.2339 26.0137ZM100.336 15.6887C100.336 14.9887 100.677 14.6387 101.361 14.6387H102.461C103.144 14.6387 103.486 14.9887 103.486 15.6887V28.1637C103.486 28.4803 103.511 28.7387 103.561 28.9387C103.627 29.122 103.711 29.272 103.811 29.3887C103.911 29.4887 104.019 29.5637 104.136 29.6137C104.252 29.647 104.369 29.672 104.486 29.6887C104.719 29.722 104.902 29.8137 105.036 29.9637C105.186 30.097 105.261 30.3053 105.261 30.5887V31.4387C105.261 31.772 105.177 32.0387 105.011 32.2387C104.861 32.422 104.594 32.5137 104.211 32.5137C103.777 32.5137 103.336 32.472 102.886 32.3887C102.436 32.3053 102.019 32.122 101.636 31.8387C101.252 31.5553 100.936 31.147 100.686 30.6137C100.452 30.0637 100.336 29.3303 100.336 28.4137V15.6887ZM106.568 26.0137C106.568 25.0303 106.726 24.1303 107.043 23.3137C107.36 22.497 107.801 21.797 108.368 21.2137C108.935 20.6137 109.618 20.1553 110.418 19.8387C111.218 19.5053 112.093 19.3387 113.043 19.3387C113.943 19.3387 114.743 19.497 115.443 19.8137C116.16 20.1137 116.751 20.5303 117.218 21.0637C117.701 21.597 118.068 22.2387 118.318 22.9887C118.568 23.7387 118.693 24.547 118.693 25.4137C118.693 25.697 118.585 25.947 118.368 26.1637C118.168 26.3803 117.91 26.4887 117.593 26.4887H109.818C109.868 27.072 110.001 27.5803 110.218 28.0137C110.451 28.447 110.735 28.8137 111.068 29.1137C111.418 29.397 111.81 29.6137 112.243 29.7637C112.693 29.9137 113.16 29.9887 113.643 29.9887C114.226 29.9887 114.751 29.897 115.218 29.7137C115.701 29.5303 116.093 29.347 116.393 29.1637C116.71 29.0137 116.976 28.9637 117.193 29.0137C117.426 29.0637 117.626 29.2303 117.793 29.5137L118.093 30.0137C118.41 30.6137 118.293 31.0803 117.743 31.4137C117.326 31.6803 116.751 31.9637 116.018 32.2637C115.285 32.547 114.418 32.6887 113.418 32.6887C112.368 32.6887 111.418 32.5137 110.568 32.1637C109.718 31.797 108.993 31.3137 108.393 30.7137C107.81 30.097 107.36 29.3887 107.043 28.5887C106.726 27.772 106.568 26.9137 106.568 26.0137ZM115.543 24.5637C115.51 23.6637 115.251 22.972 114.768 22.4887C114.301 21.9887 113.701 21.7387 112.968 21.7387C112.151 21.7387 111.468 21.997 110.918 22.5137C110.385 23.0303 110.043 23.7137 109.893 24.5637H115.543ZM120.691 31.3887C120.407 31.222 120.249 31.0137 120.216 30.7637C120.182 30.5137 120.257 30.247 120.441 29.9637L120.741 29.5137C120.924 29.247 121.124 29.097 121.341 29.0637C121.574 29.0303 121.849 29.097 122.166 29.2637C122.466 29.4303 122.849 29.622 123.316 29.8387C123.799 30.0387 124.366 30.1387 125.016 30.1387C125.566 30.1387 125.999 30.022 126.316 29.7887C126.632 29.5553 126.791 29.2387 126.791 28.8387C126.791 28.4887 126.632 28.2137 126.316 28.0137C126.016 27.797 125.624 27.6053 125.141 27.4387C124.674 27.2553 124.166 27.0637 123.616 26.8637C123.082 26.6637 122.574 26.4137 122.091 26.1137C121.624 25.8137 121.232 25.4303 120.916 24.9637C120.616 24.497 120.466 23.897 120.466 23.1637C120.466 22.547 120.591 21.997 120.841 21.5137C121.107 21.0303 121.457 20.6303 121.891 20.3137C122.341 19.997 122.857 19.7553 123.441 19.5887C124.041 19.422 124.674 19.3387 125.341 19.3387C126.191 19.3387 126.907 19.447 127.491 19.6637C128.091 19.8803 128.557 20.0803 128.891 20.2637C129.174 20.4137 129.341 20.6137 129.391 20.8637C129.441 21.1137 129.399 21.3803 129.266 21.6637L129.016 22.1137C128.866 22.4137 128.674 22.5887 128.441 22.6387C128.207 22.6887 127.932 22.647 127.616 22.5137C127.332 22.3803 126.991 22.247 126.591 22.1137C126.191 21.9637 125.724 21.8887 125.191 21.8887C124.641 21.8887 124.216 21.997 123.916 22.2137C123.616 22.4303 123.466 22.7387 123.466 23.1387C123.466 23.4887 123.616 23.772 123.916 23.9887C124.232 24.2053 124.624 24.397 125.091 24.5637C125.574 24.7303 126.082 24.9137 126.616 25.1137C127.166 25.297 127.674 25.5387 128.141 25.8387C128.624 26.1387 129.016 26.522 129.316 26.9887C129.632 27.4553 129.791 28.047 129.791 28.7637C129.791 29.3303 129.674 29.8553 129.441 30.3387C129.224 30.8053 128.899 31.2137 128.466 31.5637C128.049 31.9137 127.541 32.1887 126.941 32.3887C126.341 32.5887 125.674 32.6887 124.941 32.6887C123.907 32.6887 123.032 32.5387 122.316 32.2387C121.616 31.9387 121.074 31.6553 120.691 31.3887ZM131.197 28.8637C131.197 28.247 131.314 27.7137 131.547 27.2637C131.781 26.797 132.097 26.4053 132.497 26.0887C132.897 25.7553 133.347 25.4887 133.847 25.2887C134.364 25.0887 134.897 24.9303 135.447 24.8137C135.997 24.697 136.547 24.622 137.097 24.5887C137.647 24.5387 138.164 24.5137 138.647 24.5137H139.172V24.2137C139.172 23.3803 138.939 22.797 138.472 22.4637C138.006 22.1303 137.447 21.9637 136.797 21.9637C136.264 21.9637 135.764 22.047 135.297 22.2137C134.831 22.3637 134.447 22.522 134.147 22.6887C133.497 22.972 133.031 22.8303 132.747 22.2637L132.497 21.7887C132.181 21.172 132.314 20.7053 132.897 20.3887C133.314 20.172 133.872 19.947 134.572 19.7137C135.289 19.4637 136.122 19.3387 137.072 19.3387C138.739 19.3387 140.031 19.7803 140.947 20.6637C141.881 21.547 142.347 22.797 142.347 24.4137V31.3387C142.347 32.0387 141.997 32.3887 141.297 32.3887H140.447C139.764 32.3887 139.422 32.0387 139.422 31.3387V30.8387C139.422 30.6387 139.431 30.5053 139.447 30.4387C139.447 30.372 139.456 30.322 139.472 30.2887H139.422C139.172 30.7387 138.856 31.1387 138.472 31.4887C138.139 31.7887 137.722 32.0637 137.222 32.3137C136.722 32.5637 136.122 32.6887 135.422 32.6887C134.839 32.6887 134.289 32.597 133.772 32.4137C133.272 32.2303 132.831 31.972 132.447 31.6387C132.064 31.3053 131.756 30.9053 131.522 30.4387C131.306 29.972 131.197 29.447 131.197 28.8637ZM134.347 28.5887C134.347 29.022 134.506 29.4137 134.822 29.7637C135.156 30.097 135.639 30.2637 136.272 30.2637C136.722 30.2637 137.122 30.1637 137.472 29.9637C137.839 29.7637 138.147 29.5053 138.397 29.1887C138.647 28.8553 138.839 28.4887 138.972 28.0887C139.122 27.6887 139.197 27.297 139.197 26.9137V26.4387H138.672C138.272 26.4387 137.822 26.4637 137.322 26.5137C136.822 26.5637 136.347 26.6637 135.897 26.8137C135.464 26.9637 135.097 27.1803 134.797 27.4637C134.497 27.747 134.347 28.122 134.347 28.5887ZM145.282 15.6887C145.282 14.9887 145.624 14.6387 146.307 14.6387H147.407C148.09 14.6387 148.432 14.9887 148.432 15.6887V28.1637C148.432 28.4803 148.457 28.7387 148.507 28.9387C148.574 29.122 148.657 29.272 148.757 29.3887C148.857 29.4887 148.965 29.5637 149.082 29.6137C149.199 29.647 149.315 29.672 149.432 29.6887C149.665 29.722 149.849 29.8137 149.982 29.9637C150.132 30.097 150.207 30.3053 150.207 30.5887V31.4387C150.207 31.772 150.124 32.0387 149.957 32.2387C149.807 32.422 149.54 32.5137 149.157 32.5137C148.724 32.5137 148.282 32.472 147.832 32.3887C147.382 32.3053 146.965 32.122 146.582 31.8387C146.199 31.5553 145.882 31.147 145.632 30.6137C145.399 30.0637 145.282 29.3303 145.282 28.4137V15.6887ZM151.514 26.0137C151.514 25.0303 151.673 24.1303 151.989 23.3137C152.306 22.497 152.748 21.797 153.314 21.2137C153.881 20.6137 154.564 20.1553 155.364 19.8387C156.164 19.5053 157.039 19.3387 157.989 19.3387C158.889 19.3387 159.689 19.497 160.389 19.8137C161.106 20.1137 161.698 20.5303 162.164 21.0637C162.648 21.597 163.014 22.2387 163.264 22.9887C163.514 23.7387 163.639 24.547 163.639 25.4137C163.639 25.697 163.531 25.947 163.314 26.1637C163.114 26.3803 162.856 26.4887 162.539 26.4887H154.764C154.814 27.072 154.948 27.5803 155.164 28.0137C155.398 28.447 155.681 28.8137 156.014 29.1137C156.364 29.397 156.756 29.6137 157.189 29.7637C157.639 29.9137 158.106 29.9887 158.589 29.9887C159.173 29.9887 159.698 29.897 160.164 29.7137C160.648 29.5303 161.039 29.347 161.339 29.1637C161.656 29.0137 161.923 28.9637 162.139 29.0137C162.373 29.0637 162.573 29.2303 162.739 29.5137L163.039 30.0137C163.356 30.6137 163.239 31.0803 162.689 31.4137C162.273 31.6803 161.698 31.9637 160.964 32.2637C160.231 32.547 159.364 32.6887 158.364 32.6887C157.314 32.6887 156.364 32.5137 155.514 32.1637C154.664 31.797 153.939 31.3137 153.339 30.7137C152.756 30.097 152.306 29.3887 151.989 28.5887C151.673 27.772 151.514 26.9137 151.514 26.0137ZM160.489 24.5637C160.456 23.6637 160.198 22.972 159.714 22.4887C159.248 21.9887 158.648 21.7387 157.914 21.7387C157.098 21.7387 156.414 21.997 155.864 22.5137C155.331 23.0303 154.989 23.7137 154.839 24.5637H160.489ZM165.437 15.4887C165.37 15.272 165.387 15.1053 165.487 14.9887C165.587 14.872 165.753 14.8137 165.987 14.8137H166.537C166.887 14.8137 167.112 14.997 167.212 15.3637L170.487 28.4637C170.57 28.797 170.645 29.147 170.712 29.5137C170.778 29.8637 170.837 30.1387 170.887 30.3387H170.937C170.97 30.1387 171.02 29.8637 171.087 29.5137C171.17 29.147 171.262 28.797 171.362 28.4637L174.987 15.3387C175.087 14.9887 175.312 14.8137 175.662 14.8137H176.237C176.553 14.8137 176.778 14.9887 176.912 15.3387L180.512 28.4637C180.612 28.797 180.695 29.147 180.762 29.5137C180.845 29.8637 180.912 30.1387 180.962 30.3387H181.012C181.045 30.1387 181.095 29.8637 181.162 29.5137C181.228 29.147 181.303 28.797 181.387 28.4637L184.812 15.3637C184.895 14.997 185.12 14.8137 185.487 14.8137H186.037C186.487 14.847 186.662 15.072 186.562 15.4887L182.212 31.8637C182.095 32.2137 181.862 32.3887 181.512 32.3887H180.562C180.195 32.3887 179.962 32.2137 179.862 31.8637L176.612 20.0137C176.478 19.6137 176.353 19.1637 176.237 18.6637C176.137 18.147 176.053 17.722 175.987 17.3887H175.912C175.828 17.722 175.728 18.147 175.612 18.6637C175.512 19.1637 175.403 19.6137 175.287 20.0137L172.012 31.8637C171.912 32.2137 171.687 32.3887 171.337 32.3887H170.362C169.995 32.3887 169.77 32.2053 169.687 31.8387L165.437 15.4887ZM187.673 29.0137C187.673 27.647 188.339 26.5887 189.673 25.8387C191.006 25.072 192.898 24.6887 195.348 24.6887H196.073V24.2887C196.073 22.122 195.039 21.0387 192.973 21.0387C192.456 21.0387 191.931 21.1137 191.398 21.2637C190.864 21.4137 190.373 21.6303 189.923 21.9137C189.556 22.1137 189.273 22.047 189.073 21.7137L188.923 21.4637C188.689 21.1137 188.748 20.8303 189.098 20.6137C189.648 20.2803 190.273 20.0137 190.973 19.8137C191.689 19.6137 192.398 19.5137 193.098 19.5137C194.614 19.5137 195.773 19.9303 196.573 20.7637C197.373 21.5803 197.773 22.772 197.773 24.3387V31.7637C197.773 32.1803 197.573 32.3887 197.173 32.3887H196.773C196.356 32.3887 196.148 32.1803 196.148 31.7637V30.7637C196.148 30.5637 196.148 30.3803 196.148 30.2137C196.164 30.0303 196.189 29.897 196.223 29.8137H196.173C196.173 29.8137 196.098 29.9637 195.948 30.2637C195.798 30.5637 195.556 30.897 195.223 31.2637C194.889 31.6137 194.448 31.9387 193.898 32.2387C193.364 32.5387 192.706 32.6887 191.923 32.6887C191.306 32.6887 190.731 32.597 190.198 32.4137C189.681 32.2303 189.231 31.9803 188.848 31.6637C188.481 31.3303 188.189 30.9387 187.973 30.4887C187.773 30.0387 187.673 29.547 187.673 29.0137ZM189.423 28.8637C189.423 29.5637 189.681 30.1387 190.198 30.5887C190.731 31.0387 191.406 31.2637 192.223 31.2637C192.739 31.2637 193.231 31.147 193.698 30.9137C194.164 30.6637 194.573 30.3303 194.923 29.9137C195.273 29.4803 195.548 28.9803 195.748 28.4137C195.964 27.8303 196.073 27.2137 196.073 26.5637V25.9637H195.373C193.406 25.9637 191.923 26.2137 190.923 26.7137C189.923 27.197 189.423 27.9137 189.423 28.8637ZM201.443 20.4387C201.443 20.022 201.651 19.8137 202.068 19.8137H202.518C202.918 19.8137 203.118 20.022 203.118 20.4387V22.1387C203.118 22.3553 203.101 22.5553 203.068 22.7387C203.051 22.922 203.035 23.0553 203.018 23.1387H203.068C203.401 22.1053 203.935 21.2803 204.668 20.6637C205.401 20.047 206.218 19.7387 207.118 19.7387C207.551 19.7387 207.768 19.9387 207.768 20.3387V20.7887C207.768 21.2053 207.535 21.4137 207.068 21.4137C206.501 21.4137 205.976 21.5637 205.493 21.8637C205.026 22.147 204.618 22.5387 204.268 23.0387C203.918 23.5387 203.643 24.1387 203.443 24.8387C203.243 25.522 203.143 26.2637 203.143 27.0637V31.7637C203.143 32.1803 202.943 32.3887 202.543 32.3887H202.068C201.651 32.3887 201.443 32.1803 201.443 31.7637V20.4387ZM208.675 26.1137C208.675 25.147 208.825 24.2637 209.125 23.4637C209.425 22.647 209.85 21.947 210.4 21.3637C210.95 20.7803 211.6 20.3303 212.35 20.0137C213.116 19.6803 213.958 19.5137 214.875 19.5137C215.675 19.5137 216.4 19.6553 217.05 19.9387C217.7 20.2053 218.25 20.6053 218.7 21.1387C219.166 21.6553 219.516 22.2887 219.75 23.0387C220 23.772 220.125 24.597 220.125 25.5137C220.125 25.697 220.058 25.847 219.925 25.9637C219.808 26.0803 219.658 26.1387 219.475 26.1387H210.425C210.441 26.8887 210.566 27.572 210.8 28.1887C211.05 28.8053 211.391 29.3387 211.825 29.7887C212.258 30.222 212.766 30.5637 213.35 30.8137C213.95 31.047 214.6 31.1637 215.3 31.1637C215.866 31.1803 216.441 31.0887 217.025 30.8887C217.608 30.672 218.133 30.3803 218.6 30.0137C218.95 29.797 219.225 29.847 219.425 30.1637L219.625 30.4637C219.808 30.797 219.75 31.072 219.45 31.2887C218.866 31.722 218.2 32.0637 217.45 32.3137C216.7 32.5637 215.966 32.6887 215.25 32.6887C214.3 32.6887 213.416 32.5303 212.6 32.2137C211.8 31.8803 211.108 31.422 210.525 30.8387C209.941 30.2553 209.483 29.5637 209.15 28.7637C208.833 27.947 208.675 27.0637 208.675 26.1137ZM218.4 24.8637C218.35 23.6637 218 22.7053 217.35 21.9887C216.716 21.272 215.875 20.9137 214.825 20.9137C213.691 20.9137 212.733 21.272 211.95 21.9887C211.166 22.7053 210.683 23.6637 210.5 24.8637H218.4Z" fill="#FFFFFF"/>
</svg>
