<svg width="158" height="24" viewBox="0 0 158 24" fill="none" xmlns="http://www.w3.org/2000/svg">
<path d="M23.8377 9.16561C23.7411 9.05207 23.6209 8.96069 23.4855 8.89774C23.3501 8.83479 23.2026 8.80175 23.0532 8.8009H1.05209C0.757799 8.8009 0.463513 8.9332 0.267562 9.16561C0.0716104 9.39802 -0.0267242 9.69694 0.00629325 10.0288L1.83661 23.0703C1.90193 23.601 2.35986 24 2.88312 24H21.2222C21.7461 24 22.2034 23.601 22.2687 23.0703L23.3475 14.8737C23.3779 14.5629 23.284 14.2527 23.0862 14.0105C22.9895 13.8969 22.8692 13.8055 22.7337 13.7425C22.5981 13.6796 22.4505 13.6466 22.301 13.6458H7.81995C7.64515 13.6473 7.47277 13.6867 7.31475 13.7611C7.15673 13.8356 7.01684 13.9434 6.90479 14.077C6.79431 14.2101 6.71142 14.3637 6.66091 14.529C6.61039 14.6942 6.59326 14.8677 6.6105 15.0396L7.16606 18.756C7.23137 19.2874 7.68931 19.6857 8.21185 19.6857H15.6982C16.2222 19.6857 16.6794 19.3203 16.777 18.8562C16.8117 18.6993 16.8091 18.5364 16.7693 18.3807C16.7296 18.225 16.6538 18.0807 16.548 17.9594C16.3521 17.7277 16.0578 17.5618 15.7312 17.5618H10.4678C10.0759 17.5618 9.78161 17.2629 9.7486 16.8975V16.7652C9.7163 16.5327 9.81391 16.3332 9.94455 16.168C10.0759 16.0014 10.2719 15.9356 10.4685 15.9356H18.7049C18.9009 15.9356 19.1299 16.035 19.2605 16.2002C19.3911 16.3668 19.4564 16.5656 19.4234 16.7981L18.8679 20.8134C18.8033 21.2118 18.476 21.4771 18.1164 21.4771H5.82526C5.46566 21.4771 5.13835 21.2125 5.10605 20.847L3.96193 12.7162C3.94798 12.6108 3.9552 12.5038 3.98318 12.4013C4.01115 12.2988 4.05931 12.2028 4.12486 12.119C4.19075 12.0351 4.27526 11.9674 4.37176 11.9214C4.46827 11.8753 4.57415 11.8522 4.68113 11.8537H22.8895C23.4128 11.8537 23.8707 11.4554 23.9361 10.9241L24.0667 10.0288C24.0976 9.87703 24.093 9.72024 24.0533 9.57056C24.0136 9.42087 23.9398 9.28231 23.8377 9.16561ZM14.511 2.1074C13.5298 3.07996 13.0568 5.22603 12.8537 6.50037C12.8374 6.60175 12.8473 6.7056 12.8826 6.80208C12.9178 6.89856 12.9773 6.98447 13.0552 7.05165C13.1331 7.11884 13.227 7.16508 13.3279 7.18599C13.4288 7.20691 13.5334 7.2018 13.6317 7.17115C14.2404 6.9702 15.1197 6.66842 16.2014 6.29942C18.5018 5.4942 18.8736 4.55525 19.3473 3.44896C19.6179 2.77818 19.8885 1.53674 20.0579 0.698623C20.1584 0.262401 19.7192 -0.105884 19.2799 0.0278428C17.2507 0.665012 15.2553 1.40301 14.511 2.1074ZM9.57561 2.1074C10.5568 3.07996 11.0298 5.22603 11.2337 6.50037C11.25 6.60183 11.2401 6.70578 11.2048 6.80234C11.1695 6.89889 11.11 6.98486 11.032 7.05207C10.9539 7.11928 10.86 7.1655 10.759 7.18634C10.658 7.20718 10.5533 7.20195 10.4549 7.17115C9.84621 6.9702 8.96694 6.66842 7.88526 6.29942C5.58409 5.4942 5.21229 4.55525 4.73856 3.44896C4.46796 2.77818 4.19736 1.53674 4.02796 0.698623C3.92748 0.262401 4.36675 -0.105884 4.80603 0.0278428C6.83588 0.665012 8.83129 1.40301 9.5749 2.1074H9.57561ZM32.5436 11.2909C32.4833 11.0406 32.5077 10.844 32.6153 10.701C32.723 10.5458 32.9139 10.4686 33.1896 10.4686H34.0868C34.5174 10.4686 34.7859 10.6888 34.8935 11.13L36.7418 19.2466C36.7777 19.4254 36.8078 19.5977 36.8315 19.7651C36.8559 19.9195 36.8796 20.0626 36.9033 20.1941C36.9277 20.3372 36.9392 20.468 36.9392 20.5875H36.9751C36.9873 20.468 37.0052 20.3372 37.0289 20.1941C37.0648 19.9317 37.1366 19.6156 37.2442 19.2466L39.3617 11.1122C39.4815 10.6831 39.7629 10.4686 40.205 10.4686H40.8152C41.258 10.4686 41.5272 10.6831 41.6226 11.1122L43.7221 19.2466C43.7702 19.4368 43.8118 19.6099 43.8477 19.7651C43.9143 20.0356 43.9622 20.3104 43.9913 20.5875H44.0272C44.0394 20.468 44.0573 20.3372 44.081 20.1941C44.1067 20.0522 44.1247 19.909 44.1348 19.7651C44.1592 19.5977 44.1951 19.4254 44.2425 19.2466L46.1984 11.13C46.2824 10.6888 46.5573 10.4686 47.0239 10.4686H47.8673C48.1429 10.4686 48.3338 10.5458 48.4415 10.701C48.5613 10.844 48.5915 11.0406 48.5312 11.2909L45.607 22.5362C45.4878 22.9531 45.2065 23.1619 44.7636 23.1619H43.4896C43.0474 23.1619 42.7718 22.9473 42.6641 22.5183L40.8518 15.6532C40.7527 15.2753 40.6689 14.8936 40.6005 14.509C40.5647 14.3302 40.5352 14.1571 40.5108 13.9905H40.457C40.4319 14.1641 40.402 14.337 40.3673 14.509C40.3395 14.6952 40.3036 14.8801 40.2596 15.0632C40.2237 15.2534 40.1821 15.4501 40.134 15.6532L38.3037 22.5183C38.196 22.9473 37.9211 23.1619 37.4782 23.1619H36.1862C35.7441 23.1619 35.4685 22.9473 35.3608 22.5183L32.5436 11.2909ZM50.1311 11.2194C50.1311 10.7188 50.3823 10.4686 50.8848 10.4686H51.6564C52.1588 10.4686 52.41 10.7188 52.41 11.2194V14.9023C52.41 15.021 52.4043 15.1283 52.3921 15.2241C52.3921 15.307 52.3863 15.385 52.3741 15.4565C52.3632 15.5275 52.3572 15.5992 52.3562 15.671H52.3921C52.4997 15.4565 52.649 15.242 52.8407 15.0274C53.0438 14.8007 53.2771 14.5984 53.5405 14.4196C53.8154 14.2408 54.1205 14.0978 54.4557 13.9905C54.8162 13.8812 55.1913 13.827 55.5682 13.8296C56.5853 13.8296 57.3684 14.1035 57.9189 14.652C58.4809 15.1998 58.7623 16.0822 58.7623 17.2979V22.411C58.7623 22.9116 58.5111 23.1619 58.0086 23.1619H57.237C56.7346 23.1619 56.4834 22.9116 56.4834 22.411V17.7627C56.4834 17.2021 56.3879 16.7551 56.1963 16.4219C56.0046 16.0758 55.6221 15.9034 55.0478 15.9034C54.6531 15.9034 54.2884 15.9807 53.9532 16.1359C53.6302 16.2903 53.3553 16.5049 53.1278 16.7795C52.8905 17.059 52.7079 17.3804 52.5895 17.727C52.4671 18.1144 52.4065 18.5186 52.41 18.9248V22.411C52.41 22.9116 52.1588 23.1619 51.6564 23.1619H50.8848C50.3823 23.1619 50.1311 22.9116 50.1311 22.411V11.2194ZM60.2998 18.603C60.2998 17.9115 60.4311 17.2736 60.6945 16.6901C60.9433 16.1144 61.3101 15.5968 61.7712 15.1704C62.2372 14.7462 62.7789 14.4127 63.3682 14.1872C63.9783 13.9483 64.6301 13.8296 65.3242 13.8296C66.0182 13.8296 66.67 13.9483 67.2801 14.1872C67.8694 14.4127 68.4111 14.7462 68.8771 15.1704C69.3474 15.5927 69.7207 16.111 69.9717 16.6901C70.2351 17.2736 70.3665 17.9115 70.3665 18.603C70.3665 19.306 70.2351 19.9496 69.9717 20.5338C69.7146 21.1094 69.3421 21.6265 68.8771 22.0534C68.4111 22.4777 67.8694 22.8112 67.2801 23.0367C66.6539 23.266 65.9913 23.3811 65.3242 23.3764C64.657 23.3811 63.9945 23.266 63.3682 23.0367C62.7789 22.8112 62.2373 22.4777 61.7712 22.0534C61.3153 21.6225 60.9494 21.1061 60.6945 20.5338C60.4311 19.9496 60.2998 19.306 60.2998 18.603ZM62.6146 18.603C62.6146 19.0321 62.6864 19.419 62.8299 19.7651C62.9735 20.1105 63.1651 20.4087 63.4041 20.659C63.6553 20.9093 63.9425 21.1059 64.2654 21.2489C64.6006 21.3798 64.9531 21.4456 65.3242 21.4456C65.6952 21.4456 66.0419 21.3798 66.3649 21.2489C66.6962 21.1103 66.9967 20.9079 67.2492 20.6532C67.5017 20.3986 67.7012 20.0968 67.8364 19.7651C67.9799 19.419 68.0517 19.0321 68.0517 18.603C68.0517 18.1854 67.9799 17.8042 67.8364 17.4588C67.6928 17.1013 67.4954 16.7973 67.2442 16.547C66.9942 16.2975 66.6947 16.1027 66.3649 15.975C66.0419 15.8319 65.6952 15.7604 65.3242 15.7604C64.9531 15.7604 64.6006 15.8319 64.2654 15.975C63.9425 16.1058 63.6553 16.2968 63.4041 16.547C63.1651 16.7973 62.9735 17.1013 62.8299 17.4588C62.6864 17.8042 62.6146 18.1854 62.6146 18.603ZM72.0188 11.2194C72.0188 10.7188 72.2636 10.4686 72.7545 10.4686H73.5441C74.0343 10.4686 74.2798 10.7188 74.2798 11.2194V20.1405C74.2798 20.3665 74.2977 20.5517 74.3336 20.6947C74.381 20.8256 74.4413 20.9329 74.5131 21.0165C74.5848 21.088 74.6624 21.1417 74.7463 21.1774C74.8287 21.201 74.9127 21.219 74.9976 21.2311C75.1487 21.2468 75.289 21.3167 75.3923 21.4277C75.5 21.5228 75.5538 21.6716 75.5538 21.8747V22.4825C75.5538 22.7207 75.4935 22.9116 75.3744 23.0546C75.2667 23.1855 75.0751 23.2513 74.8002 23.2513C74.4887 23.2513 74.1721 23.2212 73.8491 23.1619C73.5237 23.1012 73.2167 22.9667 72.9519 22.7686C72.6763 22.5655 72.4495 22.2737 72.27 21.8925C72.1021 21.4992 72.0188 20.9743 72.0188 20.3193V11.2194ZM76.492 18.603C76.492 17.8993 76.6054 17.2557 76.8329 16.6722C77.0446 16.1126 77.3682 15.6017 77.7839 15.1704C78.1954 14.7383 78.6979 14.4024 79.2554 14.1872C79.8296 13.9483 80.4576 13.8296 81.1395 13.8296C81.7855 13.8296 82.3597 13.9426 82.8622 14.1693C83.3768 14.3838 83.801 14.6813 84.1362 15.0632C84.4829 15.4443 84.7463 15.9034 84.9258 16.4398C85.1052 16.9761 85.1949 17.5539 85.1949 18.1739C85.1949 18.3763 85.1174 18.5551 84.9617 18.7103C84.8181 18.8647 84.6329 18.9427 84.4054 18.9427H78.8247C78.8606 19.3596 78.9561 19.7229 79.1118 20.0332C79.2791 20.3429 79.4829 20.6053 79.7219 20.8199C79.9731 21.0223 80.2545 21.1774 80.5653 21.2847C80.8893 21.3921 81.2287 21.4464 81.5702 21.4456C81.9561 21.4514 82.3396 21.3847 82.7007 21.2489C82.9931 21.1434 83.2754 21.0118 83.5441 20.8556C83.7716 20.7484 83.9625 20.7126 84.1183 20.7484C84.2855 20.7841 84.4291 20.9028 84.5489 21.1059L84.7643 21.4635C84.9918 21.8925 84.9078 22.2258 84.513 22.4646C84.2137 22.6549 83.801 22.858 83.2749 23.0725C82.7488 23.2749 82.1265 23.3764 81.4087 23.3764C80.655 23.3764 79.9731 23.2513 79.363 23.001C78.7811 22.7576 78.2512 22.4056 77.8019 21.9641C77.3841 21.5241 77.0551 21.0082 76.8329 20.4444C76.6049 19.8572 76.4892 19.2326 76.492 18.603ZM82.9339 17.5661C82.9103 16.9225 82.7244 16.4276 82.3777 16.0822C82.0425 15.7247 81.6118 15.5459 81.0857 15.5459C80.4993 15.5459 80.009 15.7304 79.6143 16.1001C79.2317 16.4691 78.9862 16.9582 78.8785 17.5661H82.9339ZM86.629 22.4468C86.4252 22.3273 86.3118 22.1786 86.2881 21.9998C86.2637 21.821 86.3175 21.6301 86.4496 21.4277L86.6649 21.1059C86.7963 20.915 86.9398 20.8077 87.0956 20.7841C87.2628 20.7598 87.4602 20.8077 87.6877 20.9271C87.9031 21.0458 88.178 21.1832 88.5132 21.3383C88.8599 21.4814 89.2668 21.5529 89.7334 21.5529C90.1282 21.5529 90.439 21.4692 90.6665 21.3026C90.7753 21.2263 90.8634 21.1243 90.9229 21.0057C90.9824 20.8872 91.0115 20.7557 91.0074 20.6232C91.0074 20.3729 90.8933 20.1763 90.6665 20.0332C90.4512 19.8781 90.1698 19.7408 89.8231 19.6221C89.46 19.4804 89.0951 19.3433 88.7285 19.2109C88.3468 19.0685 87.9801 18.8889 87.6339 18.6745C87.2993 18.4607 87.0123 18.1808 86.7905 17.8521C86.5752 17.5182 86.4675 17.0891 86.4675 16.5649C86.4675 16.1237 86.5573 15.7304 86.7367 15.385C86.921 15.0468 87.1784 14.7537 87.4904 14.5268C87.8134 14.3001 88.1837 14.1271 88.6029 14.0084C89.0336 13.889 89.4879 13.8296 89.9667 13.8296C90.5768 13.8296 91.0907 13.9068 91.5099 14.062C91.9405 14.2165 92.275 14.3595 92.5147 14.4911C92.7179 14.5984 92.8377 14.7414 92.8736 14.9202C92.9095 15.0989 92.8794 15.2892 92.7839 15.4923L92.6045 15.8141C92.4968 16.0286 92.359 16.1537 92.1918 16.1895C92.0238 16.2252 91.8264 16.1952 91.5996 16.1001C91.3601 15.9907 91.1145 15.8952 90.8639 15.8141C90.5768 15.7068 90.2416 15.6532 89.859 15.6532C89.4642 15.6532 89.1592 15.7304 88.9438 15.8856C88.7285 16.04 88.6208 16.261 88.6208 16.547C88.6208 16.7973 88.7285 16.9997 88.9438 17.1549C89.2062 17.3273 89.4896 17.4654 89.7872 17.5661C90.1339 17.6848 90.4985 17.8164 90.8818 17.9594C91.2766 18.0903 91.6412 18.2633 91.9764 18.4779C92.3231 18.6924 92.6045 18.9663 92.8198 19.3002C93.0466 19.6335 93.1608 20.0568 93.1608 20.5696C93.1641 20.9592 93.0782 21.3444 92.9095 21.6959C92.7472 22.0378 92.5077 22.3376 92.2097 22.5719C91.9104 22.8222 91.5458 23.0189 91.1151 23.1619C90.6844 23.3049 90.2057 23.3764 89.6796 23.3764C88.9374 23.3764 88.3093 23.2691 87.7954 23.0546C87.293 22.8401 86.9039 22.637 86.629 22.4468ZM94.1699 20.6411C94.1699 20.1999 94.2539 19.8187 94.4212 19.4969C94.5891 19.1629 94.8159 18.8826 95.103 18.6566C95.3901 18.4178 95.7131 18.2276 96.072 18.0845C96.4431 17.9415 96.8257 17.8278 97.2205 17.7449C97.6152 17.6612 98.01 17.6076 98.4048 17.584C98.7996 17.5482 99.1706 17.5303 99.5173 17.5303H99.8942V17.3158C99.8942 16.7194 99.7269 16.3025 99.3917 16.0643C99.0572 15.8255 98.656 15.7068 98.1895 15.7068C97.8069 15.7068 97.448 15.7661 97.1128 15.8856C96.8274 15.9722 96.5509 16.0859 96.2874 16.2252C95.8208 16.4276 95.4863 16.3261 95.2825 15.9213L95.103 15.5816C94.8762 15.1404 94.9717 14.8065 95.3901 14.5805C95.6894 14.4253 96.09 14.2644 96.5924 14.0978C97.107 13.919 97.7049 13.8296 98.3868 13.8296C99.5834 13.8296 100.511 14.145 101.168 14.7771C101.839 15.4086 102.173 16.3025 102.173 17.4588V22.411C102.173 22.9116 101.922 23.1619 101.419 23.1619H100.809C100.319 23.1619 100.074 22.9116 100.074 22.411V22.0534C100.074 21.9104 100.08 21.8146 100.092 21.7674C100.092 21.7195 100.098 21.6837 100.109 21.6601H100.074C99.8942 21.9819 99.6673 22.268 99.3917 22.5183C99.1205 22.7541 98.8187 22.9525 98.4945 23.1082C98.1356 23.287 97.705 23.3764 97.2025 23.3764C96.7993 23.379 96.3987 23.3124 96.0182 23.1798C95.6698 23.0546 95.3474 22.8667 95.0671 22.6255C94.7913 22.3858 94.5657 22.0942 94.4032 21.7674C94.2437 21.4135 94.164 21.029 94.1699 20.6411ZM96.4309 20.4444C96.4309 20.7541 96.545 21.0344 96.7719 21.2847C97.0116 21.5228 97.3583 21.6423 97.8126 21.6423C98.1356 21.6423 98.4227 21.5707 98.674 21.4277C98.9374 21.2847 99.1584 21.0995 99.3379 20.8735C99.5173 20.6347 99.6551 20.3729 99.7506 20.0869C99.8583 19.8008 99.9121 19.5205 99.9121 19.2466V18.9069H99.5353C99.2482 18.9069 98.9252 18.9248 98.5663 18.9606C98.2074 18.9963 97.8664 19.0678 97.5434 19.1751C97.2327 19.2824 96.9692 19.4368 96.7539 19.6399C96.5386 19.8423 96.4309 20.1105 96.4309 20.4444ZM104.28 11.2194C104.28 10.7188 104.525 10.4686 105.015 10.4686H105.805C106.295 10.4686 106.541 10.7188 106.541 11.2194V20.1405C106.541 20.3665 106.559 20.5517 106.595 20.6947C106.643 20.8256 106.702 20.9329 106.774 21.0165C106.846 21.088 106.923 21.1417 107.007 21.1774C107.091 21.201 107.174 21.2189 107.258 21.2311C107.41 21.2467 107.55 21.3166 107.653 21.4277C107.761 21.5228 107.815 21.6716 107.815 21.8747V22.4825C107.815 22.7207 107.755 22.9116 107.635 23.0546C107.528 23.1855 107.336 23.2513 107.061 23.2513C106.742 23.2504 106.424 23.2205 106.11 23.1619C105.785 23.1012 105.478 22.9667 105.213 22.7686C104.938 22.5655 104.71 22.2737 104.531 21.8925C104.364 21.4992 104.28 20.9743 104.28 20.3193V11.2194ZM108.753 18.603C108.753 17.8993 108.867 17.2557 109.094 16.6722C109.306 16.1128 109.629 15.6019 110.045 15.1704C110.456 14.7383 110.959 14.4024 111.516 14.1872C112.091 13.9483 112.719 13.8296 113.4 13.8296C114.046 13.8296 114.621 13.9426 115.123 14.1693C115.638 14.3838 116.063 14.6813 116.397 15.0632C116.754 15.4618 117.023 15.9308 117.187 16.4398C117.366 16.9761 117.456 17.5539 117.456 18.1739C117.456 18.3763 117.378 18.5551 117.223 18.7103C117.079 18.8647 116.894 18.9427 116.666 18.9427H111.086C111.122 19.3596 111.218 19.7229 111.373 20.0332C111.541 20.3429 111.744 20.6053 111.983 20.8199C112.234 21.0223 112.515 21.1774 112.826 21.2847C113.15 21.3921 113.49 21.4464 113.831 21.4456C114.217 21.4514 114.601 21.3847 114.962 21.2489C115.254 21.1436 115.536 21.0119 115.805 20.8556C116.033 20.7484 116.224 20.7126 116.379 20.7484C116.547 20.7841 116.691 20.9028 116.81 21.1059L117.025 21.4635C117.253 21.8925 117.169 22.2258 116.774 22.4646C116.475 22.6549 116.063 22.858 115.536 23.0725C115.01 23.2749 114.387 23.3764 113.67 23.3764C112.916 23.3764 112.234 23.2513 111.624 23.001C111.042 22.7576 110.512 22.4056 110.063 21.9641C109.645 21.5241 109.316 21.0082 109.094 20.4444C108.866 19.8571 108.751 19.2326 108.753 18.603ZM115.195 17.5661C115.171 16.9225 114.986 16.4276 114.639 16.0822C114.304 15.7247 113.873 15.5459 113.347 15.5459C112.761 15.5459 112.27 15.7304 111.875 16.1001C111.493 16.4691 111.247 16.9582 111.139 17.5661H115.195ZM118.746 11.0764C118.698 10.9212 118.711 10.8018 118.782 10.7188C118.854 10.6352 118.973 10.5937 119.141 10.5937H119.536C119.787 10.5937 119.949 10.7246 120.02 10.987L122.371 20.355C122.431 20.5932 122.485 20.8435 122.533 21.1059C122.58 21.3562 122.622 21.5529 122.658 21.6959H122.694C122.718 21.5529 122.754 21.3562 122.802 21.1059C122.861 20.8435 122.927 20.5932 122.999 20.355L125.601 10.9691C125.673 10.7188 125.834 10.5937 126.086 10.5937H126.498C126.725 10.5937 126.887 10.7188 126.983 10.9691L129.567 20.355C129.639 20.5932 129.698 20.8435 129.746 21.1059C129.806 21.3562 129.854 21.5529 129.89 21.6959H129.926C129.949 21.5529 129.985 21.3562 130.033 21.1059C130.081 20.8435 130.135 20.5932 130.195 20.355L132.653 10.987C132.713 10.7246 132.874 10.5937 133.138 10.5937H133.532C133.855 10.6173 133.981 10.7782 133.909 11.0764L130.787 22.7864C130.703 23.0367 130.536 23.1619 130.285 23.1619H129.603C129.339 23.1619 129.172 23.0367 129.1 22.7864L126.767 14.3123C126.671 14.0263 126.582 13.7045 126.498 13.3469C126.427 12.9772 126.366 12.6733 126.319 12.4351H126.265C126.205 12.6733 126.133 12.9772 126.05 13.3469C125.978 13.7045 125.9 14.0263 125.816 14.3123L123.466 22.7864C123.394 23.0367 123.232 23.1619 122.981 23.1619H122.281C122.018 23.1619 121.857 23.0303 121.797 22.7686L118.746 11.0764ZM134.707 20.7484C134.707 19.7708 135.185 19.0142 136.142 18.4779C137.099 17.9294 138.457 17.6555 140.216 17.6555H140.736V17.3694C140.736 15.8198 139.994 15.0453 138.511 15.0453C138.14 15.0453 137.763 15.0989 137.38 15.2062C137.007 15.3093 136.65 15.4659 136.322 15.671C136.058 15.8141 135.855 15.7661 135.712 15.528L135.604 15.3492C135.436 15.0989 135.478 14.8958 135.73 14.7414C136.124 14.5025 136.573 14.3123 137.075 14.1693C137.589 14.0263 138.098 13.9547 138.601 13.9547C139.689 13.9547 140.521 14.2522 141.095 14.8486C141.669 15.4322 141.956 16.2846 141.956 17.4052V22.7149C141.956 23.0124 141.813 23.1619 141.526 23.1619H141.238C140.939 23.1619 140.79 23.0124 140.79 22.7149V21.6065C140.795 21.5091 140.813 21.4129 140.844 21.3205H140.808L140.646 21.6423C140.539 21.8568 140.365 22.0949 140.126 22.3574C139.886 22.6077 139.57 22.8401 139.175 23.0546C138.792 23.2691 138.319 23.3764 137.757 23.3764C137.336 23.3799 136.918 23.3135 136.519 23.1798C136.167 23.0591 135.839 22.8776 135.55 22.6434C135.288 22.4067 135.075 22.1213 134.922 21.8032C134.779 21.4814 134.707 21.1295 134.707 20.7484ZM135.963 20.6411C135.963 21.1417 136.148 21.5529 136.519 21.8747C136.902 22.1965 137.386 22.3574 137.973 22.3574C138.34 22.358 138.703 22.2722 139.031 22.1071C139.366 21.9283 139.659 21.6895 139.911 21.392C140.162 21.0816 140.359 20.724 140.503 20.3193C140.658 19.9017 140.736 19.4611 140.736 18.9963V18.5673H140.234C138.822 18.5673 137.757 18.746 137.04 19.1036C136.322 19.449 135.963 19.9617 135.963 20.6411ZM144.59 14.6162C144.59 14.318 144.74 14.1693 145.039 14.1693H145.362C145.649 14.1693 145.793 14.318 145.793 14.6162V15.8319C145.793 15.9864 145.781 16.1294 145.757 16.261C145.749 16.3569 145.737 16.4523 145.721 16.547H145.757C145.996 15.8076 146.379 15.2176 146.905 14.7771C147.431 14.3359 148.018 14.1157 148.664 14.1157C148.975 14.1157 149.13 14.2587 149.13 14.5447V14.8665C149.13 15.164 148.963 15.3135 148.628 15.3135C148.228 15.3115 147.836 15.4231 147.497 15.6353C147.149 15.851 146.849 16.1372 146.618 16.4755C146.367 16.8331 146.17 17.2622 146.026 17.7627C145.878 18.2802 145.806 18.816 145.811 19.3539V22.7149C145.811 23.0124 145.667 23.1619 145.38 23.1619H145.039C144.74 23.1619 144.59 23.0124 144.59 22.7149V14.6162ZM149.781 18.6745C149.781 17.983 149.889 17.3516 150.104 16.7795C150.32 16.1952 150.625 15.6946 151.02 15.2777C151.413 14.8615 151.89 14.5326 152.419 14.3123C152.969 14.0735 153.573 13.9547 154.232 13.9547C154.806 13.9547 155.326 14.0556 155.793 14.2587C156.259 14.4489 156.654 14.7349 156.977 15.1168C157.312 15.4858 157.563 15.9392 157.731 16.4755C157.91 16.9997 158 17.5897 158 18.2455C158.001 18.3064 157.989 18.3669 157.965 18.4225C157.94 18.4782 157.903 18.5277 157.856 18.5673C157.814 18.6089 157.763 18.6415 157.708 18.663C157.652 18.6845 157.593 18.6945 157.533 18.6924H151.037C151.042 19.1928 151.133 19.6887 151.307 20.1584C151.486 20.5989 151.731 20.9808 152.042 21.3026C152.357 21.6147 152.728 21.8636 153.137 22.0356C153.568 22.2022 154.034 22.2859 154.537 22.2859C154.958 22.2954 155.377 22.2288 155.775 22.0892C156.182 21.9405 156.563 21.7294 156.905 21.4635C157.156 21.3083 157.354 21.3441 157.497 21.5707L157.641 21.7853C157.772 22.0234 157.731 22.2201 157.515 22.3753C157.079 22.6941 156.594 22.9415 156.08 23.1082C155.541 23.287 155.015 23.3764 154.501 23.3764C153.819 23.3764 153.184 23.2627 152.599 23.0367C152.042 22.81 151.536 22.4758 151.109 22.0534C150.685 21.6287 150.35 21.1243 150.122 20.5696C149.891 19.9646 149.775 19.3219 149.781 18.6745ZM156.762 17.7806C156.726 16.9225 156.475 16.2367 156.008 15.7247C155.553 15.2119 154.949 14.9559 154.196 14.9559C153.382 14.9559 152.694 15.2119 152.132 15.7247C151.569 16.2367 151.223 16.9225 151.091 17.7806H156.762Z" fill="#1C6E31"/>
</svg>
