<svg width="24" height="24" viewBox="0 0 24 24" fill="none" xmlns="http://www.w3.org/2000/svg">
<path fill-rule="evenodd" clip-rule="evenodd" d="M14.2662 6.37232C14.2955 6.35915 14.3204 6.3378 14.3378 6.31083C14.3553 6.28387 14.3645 6.25244 14.3645 6.22032C14.3645 6.18821 14.3553 6.15678 14.3378 6.12981C14.3204 6.10285 14.2955 6.0815 14.2662 6.06832L11.9329 5.05566C11.8488 5.01895 11.758 5 11.6662 5C11.5745 5 11.4837 5.01895 11.3996 5.05566L4.9949 7.84099C4.96484 7.8538 4.9392 7.87516 4.92118 7.90242C4.90316 7.92969 4.89355 7.96164 4.89355 7.99432C4.89355 8.027 4.90316 8.05896 4.92118 8.08622C4.9392 8.11349 4.96484 8.13485 4.9949 8.14766L7.79957 9.31366C7.82056 9.32295 7.84327 9.32776 7.86624 9.32776C7.8892 9.32776 7.91191 9.32295 7.9329 9.31366L14.2662 6.37232ZM8.64065 10.7704C8.6679 10.7677 8.69538 10.7718 8.72067 10.7824L11.3947 11.897C11.425 11.9097 11.451 11.9311 11.4692 11.9585C11.4875 11.9859 11.4973 12.0181 11.4973 12.051V19.815C11.4974 19.8425 11.4906 19.8695 11.4777 19.8937C11.4647 19.9179 11.446 19.9385 11.4232 19.9537C11.4004 19.969 11.3742 19.9783 11.3469 19.981C11.3195 19.9837 11.292 19.9796 11.2667 19.969L4.41 17.111C4.28856 17.0604 4.18483 16.9749 4.11187 16.8654C4.03891 16.7559 3.99999 16.6273 4 16.4957V9.06502C4.00015 9.03764 4.00697 9.0107 4.01986 8.98654C4.03275 8.96238 4.05134 8.94173 4.074 8.92636C4.09686 8.91114 4.12314 8.90184 4.15049 8.89928C4.17783 8.89672 4.20538 8.90099 4.23067 8.91169L7.38733 10.2244C7.41812 10.2371 7.44438 10.2587 7.46268 10.2866C7.48099 10.3144 7.49051 10.3471 7.49 10.3804V12.2737C7.49 12.4063 7.54268 12.5335 7.63645 12.6272C7.73021 12.721 7.85739 12.7737 7.99 12.7737C8.12261 12.7737 8.24979 12.721 8.34355 12.6272C8.43732 12.5335 8.49 12.4063 8.49 12.2737V10.9357C8.49009 10.9083 8.49693 10.8814 8.5099 10.8573C8.52288 10.8331 8.5416 10.8126 8.5644 10.7974C8.5872 10.7823 8.61339 10.773 8.64065 10.7704ZM12.5206 19.8665C12.5072 19.8421 12.5001 19.8147 12.5 19.7869L12.502 12.0356C12.5019 12.0036 12.5112 11.9723 12.5286 11.9454C12.546 11.9185 12.5708 11.8973 12.6 11.8843L19.098 8.9296C19.1234 8.91811 19.1513 8.91318 19.1791 8.91526C19.2069 8.91733 19.2337 8.92634 19.2571 8.94146C19.2805 8.95658 19.2998 8.97733 19.3131 9.00181C19.3264 9.0263 19.3334 9.05373 19.3333 9.0816V16.5109C19.3333 16.6389 19.2964 16.7641 19.2272 16.8717C19.1579 16.9793 19.0591 17.0646 18.9427 17.1176L12.7353 19.9389C12.7099 19.9502 12.6821 19.955 12.6544 19.9529C12.6267 19.9507 12.5999 19.9417 12.5765 19.9266C12.5532 19.9115 12.534 19.8908 12.5206 19.8665ZM15.8749 13.2985C15.8344 13.3153 15.7976 13.3399 15.7667 13.3709L14.764 14.3709C14.7173 14.4176 14.6854 14.477 14.6725 14.5417C14.6596 14.6065 14.6662 14.6736 14.6915 14.7346C14.7168 14.7956 14.7596 14.8477 14.8145 14.8843C14.8694 14.9209 14.934 14.9404 15 14.9403H15.336C15.3579 14.9402 15.3796 14.9444 15.3999 14.9528C15.4201 14.9611 15.4386 14.9734 15.454 14.9889C15.4695 15.0044 15.4818 15.0228 15.4902 15.043C15.4985 15.0633 15.5028 15.085 15.5027 15.1069V16.2736C15.5027 16.4062 15.5553 16.5334 15.6491 16.6272C15.7429 16.7209 15.8701 16.7736 16.0027 16.7736C16.1353 16.7736 16.2625 16.7209 16.3562 16.6272C16.45 16.5334 16.5027 16.4062 16.5027 16.2736V15.1069C16.5026 15.085 16.5068 15.0633 16.5152 15.043C16.5235 15.0228 16.5358 15.0044 16.5513 14.9889C16.5668 14.9734 16.5852 14.9611 16.6054 14.9528C16.6257 14.9444 16.6474 14.9402 16.6693 14.9403H17.0027C17.0687 14.9404 17.1332 14.9209 17.1882 14.8843C17.2431 14.8477 17.2859 14.7956 17.3112 14.7346C17.3365 14.6736 17.3431 14.6065 17.3302 14.5417C17.3172 14.477 17.2854 14.4176 17.2387 14.3709L16.2387 13.3709C16.2077 13.3399 16.1709 13.3153 16.1304 13.2985C16.0899 13.2817 16.0465 13.273 16.0027 13.273C15.9588 13.273 15.9154 13.2817 15.8749 13.2985ZM11.9904 11.0473C11.9675 11.0473 11.9448 11.0427 11.9238 11.0336L9.46576 10.0089C9.43598 9.9965 9.41045 9.9757 9.39227 9.94904C9.37408 9.92239 9.36403 9.89103 9.36332 9.85877C9.36262 9.82651 9.37129 9.79473 9.38829 9.76731C9.40529 9.73988 9.42989 9.71798 9.45909 9.70426L15.7631 6.77893C15.7841 6.76983 15.8068 6.76514 15.8298 6.76514C15.8527 6.76514 15.8754 6.76983 15.8964 6.77893L18.3744 7.8536C18.4037 7.86677 18.4286 7.88812 18.446 7.91509C18.4635 7.94205 18.4727 7.97348 18.4727 8.0056C18.4727 8.03771 18.4635 8.06914 18.446 8.09611C18.4286 8.12307 18.4037 8.14442 18.3744 8.1576L12.0571 11.0336C12.036 11.0427 12.0134 11.0473 11.9904 11.0473Z"/>
</svg>
