<svg width="24" height="24" viewBox="0 0 24 24" fill="none" xmlns="http://www.w3.org/2000/svg">
<path fill-rule="evenodd" clip-rule="evenodd" d="M15.3566 5.66408C14.8455 6.17542 14.1824 6.50723 13.4667 6.60973C13.3624 6.62526 13.2559 6.61618 13.1557 6.58323C13.0555 6.55028 12.9644 6.49436 12.8897 6.41995C12.8149 6.34553 12.7586 6.25467 12.7252 6.15463C12.6918 6.05458 12.6823 5.94812 12.6974 5.84373C12.7997 5.12778 13.1314 4.46431 13.6427 3.95285C14.1541 3.44139 14.8174 3.10954 15.5334 3.00706C15.6376 2.99189 15.744 3.00124 15.844 3.03438C15.944 3.06752 16.0349 3.12354 16.1095 3.19797C16.184 3.2724 16.2402 3.3632 16.2735 3.46315C16.3068 3.5631 16.3164 3.66945 16.3014 3.77373C16.1992 4.48945 15.8677 5.15274 15.3566 5.66408ZM12.5627 7.27311C13.1293 7.06685 13.7309 6.9742 14.3333 7.00045C16.576 7.00045 18.3333 9.19645 18.3333 12.0004C18.3333 14.6378 16.308 19.0004 14 19.0004C12.7993 19.0004 12.446 18.7724 12.138 18.4978C12.0786 18.4344 12.0046 18.3863 11.9225 18.3577C11.8404 18.3292 11.7526 18.321 11.6667 18.3338C11.5807 18.321 11.4929 18.3292 11.4108 18.3577C11.3287 18.3863 11.2548 18.4344 11.1953 18.4978C10.8873 18.7724 10.5333 19.0004 9.33333 19.0004C7.02533 19.0004 5 14.6378 5 12.0004C5 9.19645 6.75733 7.00045 9 7.00045C9.6024 6.9742 10.2041 7.06685 10.7707 7.27311C10.7959 7.28328 10.8232 7.28713 10.8503 7.28434C10.8774 7.28156 10.9034 7.27221 10.926 7.25711C10.9489 7.24196 10.9676 7.22134 10.9805 7.19714C10.9935 7.17293 11.0001 7.14589 11 7.11845V6.66711C11 6.4903 10.9298 6.32073 10.8047 6.19571C10.6797 6.07069 10.5101 6.00045 10.3333 6.00045H9C8.82319 6.00045 8.65362 5.93021 8.5286 5.80519C8.40357 5.68016 8.33333 5.51059 8.33333 5.33378C8.33333 5.15697 8.40357 4.9874 8.5286 4.86238C8.65362 4.73735 8.82319 4.66711 9 4.66711H10.3333C10.8638 4.66711 11.3725 4.87783 11.7475 5.2529C12.1226 5.62797 12.3333 6.13668 12.3333 6.66711V7.11845C12.3333 7.14577 12.34 7.17269 12.3528 7.19683C12.3656 7.22096 12.3842 7.24158 12.4068 7.25686C12.4295 7.27214 12.4555 7.28161 12.4827 7.28444C12.5099 7.28728 12.5373 7.28339 12.5627 7.27311Z"/>
</svg>
