<svg width="17" height="17" viewBox="0 0 17 17" fill="none" xmlns="http://www.w3.org/2000/svg">
<path d="M15.4062 6.375H14.875V2.7207C14.875 2.50936 14.791 2.30668 14.6416 2.15724L12.7178 0.233385C12.5683 0.0839516 12.3656 1.10499e-06 12.1543 0L2.92188 0C2.48177 0 2.125 0.356768 2.125 0.796875V6.375H1.59375C0.713535 6.375 0 7.08854 0 7.96875V12.3516C0 12.5716 0.1784 12.75 0.398438 12.75H2.125V16.2031C2.125 16.6432 2.48177 17 2.92188 17H14.0781C14.5182 17 14.875 16.6432 14.875 16.2031V12.75H16.6016C16.8216 12.75 17 12.5716 17 12.3516V7.96875C17 7.08854 16.2865 6.375 15.4062 6.375ZM12.75 14.875H4.25V11.6875H12.75V14.875ZM4.25 7.4375V2.125H10.625V3.45312C10.625 3.89141 10.9836 4.25 11.4219 4.25H12.75V7.4375H4.25ZM14.3438 9.82812C13.9037 9.82812 13.5469 9.47132 13.5469 9.03125C13.5469 8.59118 13.9037 8.23438 14.3438 8.23438C14.7838 8.23438 15.1406 8.59118 15.1406 9.03125C15.1406 9.47132 14.7838 9.82812 14.3438 9.82812Z" fill="white"/>
</svg>
