<svg width="38" height="27" viewBox="0 0 38 27" fill="none" xmlns="http://www.w3.org/2000/svg">
<line x1="8.02344" y1="6.5" x2="8.02344" y2="21.5" stroke="white" stroke-linecap="round"/>
<line x1="26.6899" y1="6.5" x2="26.6899" y2="21.5" stroke="white" stroke-linecap="round"/>
<line x1="13.0234" y1="7.5" x2="13.0234" y2="20.5" stroke="white" stroke-width="3" stroke-linecap="round"/>
<line x1="19.1899" y1="7" x2="19.1899" y2="21" stroke="white" stroke-width="2" stroke-linecap="round"/>
<line x1="31.1899" y1="7" x2="31.1899" y2="21" stroke="white" stroke-width="2" stroke-linecap="round"/>
<line x1="23.1899" y1="7" x2="23.1899" y2="21" stroke="white" stroke-width="2" stroke-linecap="round"/>
<path d="M10.6069 1H3.85693C2.75236 1 1.85693 1.89543 1.85693 3V7.25M28.1069 1H34.8569C35.9615 1 36.8569 1.89543 36.8569 3V7.25M1.85693 19.75V24C1.85693 25.1046 2.75236 26 3.85693 26H10.6069M36.8569 19.75V24C36.8569 25.1046 35.9615 26 34.8569 26H28.1069" stroke="white" stroke-width="2" stroke-linecap="round"/>
</svg>
