<svg width="16" height="17" viewBox="0 0 16 17" fill="none" xmlns="http://www.w3.org/2000/svg">
<path d="M12.5328 11.1093C13.3635 11.94 14.1704 12.7707 15.0011 13.6014C15.0723 13.6726 15.1673 13.7675 15.2385 13.8387C15.7606 14.3609 15.8081 14.9305 15.4284 15.5001C15.0961 15.9748 14.3841 16.1647 13.7907 15.8799C13.6246 15.8087 13.4584 15.69 13.3398 15.5476C12.4853 14.7169 11.6546 13.8862 10.8239 13.0318C10.7527 12.9606 10.7053 12.8894 10.6341 12.7944C8.83027 13.8625 6.95527 14.1235 4.98534 13.5065C3.46636 13.008 2.25592 12.0824 1.40149 10.7533C-0.426041 7.9052 0.143578 4.22641 2.61193 2.04287C5.00907 -0.0694716 8.6404 -0.23561 11.2749 1.85299C13.6958 3.77546 14.9062 7.83399 12.5328 11.1093ZM11.5597 7.09824C11.4885 4.46375 9.47109 2.49381 6.86034 2.61249C4.34452 2.70742 2.58819 4.79603 2.56446 6.97957C2.54072 9.68526 4.6768 11.6552 7.21635 11.584C9.6135 11.5365 11.6309 9.44791 11.5597 7.09824Z"/>
</svg>
