<svg t="1628152003592" viewBox="0 0 1024 1024" version="1.1" xmlns="http://www.w3.org/2000/svg" p-id="3512" width="16" verticalAlign="middle" height="16" fill="none">
<path d="M865.834667 97.834667a42.666667 42.666667 0 0 1 63.872 56.32l-3.541334 4.010666-469.333333 469.333334a42.666667 42.666667 0 0 1-63.872-56.32l3.541333-4.010667 469.333334-469.333333z" fill="#ffffff" p-id="3513"></path>
<path d="M891.349333 85.589333L895.872 85.333333l5.546667 0.341334 3.84 0.682666 5.248 1.493334 4.565333 1.962666 4.266667 2.432 3.84 2.858667 3.498666 3.2 2.218667 2.517333 3.498667 4.949334 2.218666 4.096c2.005333 4.266667 3.285333 8.789333 3.84 13.482666l0.213334 4.522667c0 3.2-0.341333 6.357333-1.024 9.386667l-1.493334 5.248-278.698666 771.285333A66.133333 66.133333 0 0 1 597.333333 952.32a66.005333 66.005333 0 0 1-56.704-31.872l-2.773333-5.418667-143.018667-285.952-284.586666-142.336a66.133333 66.133333 0 0 1-38.314667-53.717333L71.68 426.666667c0-23.893333 12.842667-45.738667 35.882667-58.453334l5.973333-2.986666 768.725333-277.589334 4.522667-1.28 4.608-0.768z m-66.346666 113.365334L186.368 429.44l259.413333 129.706667a42.666667 42.666667 0 0 1 16.256 14.336l2.773334 4.778666 129.621333 259.2 230.570667-638.506666z" fill="#ffffff" p-id="3514"></path>
</svg>